%YAML 1.1
%TAG !u! tag:unity3d.com,2011:
--- !u!1001 &100100000
Prefab:
  m_ObjectHideFlags: 1
  serializedVersion: 2
  m_Modification:
    m_TransformParent: {fileID: 0}
    m_Modifications: []
    m_RemovedComponents: []
  m_ParentPrefab: {fileID: 0}
  m_RootGameObject: {fileID: 1188555313428882}
  m_IsPrefabParent: 1
--- !u!1 &1188555313428882
GameObject:
  m_ObjectHideFlags: 0
  m_PrefabParentObject: {fileID: 0}
  m_PrefabInternal: {fileID: 100100000}
  serializedVersion: 5
  m_Component:
  - component: {fileID: 4124726081917112}
  - component: {fileID: 114873341597040442}
  m_Layer: 0
  m_Name: BoxMesaggeManager
  m_TagString: Untagged
  m_Icon: {fileID: 0}
  m_NavMeshLayer: 0
  m_StaticEditorFlags: 0
  m_IsActive: 1
--- !u!4 &4124726081917112
Transform:
  m_ObjectHideFlags: 1
  m_PrefabParentObject: {fileID: 0}
  m_PrefabInternal: {fileID: 100100000}
  m_GameObject: {fileID: 1188555313428882}
  m_LocalRotation: {x: 0, y: 0, z: 0, w: 1}
  m_LocalPosition: {x: 392.7055, y: 238.83575, z: -3.1804776}
  m_LocalScale: {x: 1, y: 1, z: 1}
  m_Children: []
  m_Father: {fileID: 0}
  m_RootOrder: 0
  m_LocalEulerAnglesHint: {x: 0, y: 0, z: 0}
--- !u!114 &114873341597040442
MonoBehaviour:
  m_ObjectHideFlags: 1
  m_PrefabParentObject: {fileID: 0}
  m_PrefabInternal: {fileID: 100100000}
  m_GameObject: {fileID: 1188555313428882}
  m_Enabled: 1
  m_EditorHideFlags: 0
  m_Script: {fileID: 11500000, guid: 0ebf12dbff6c3634da33d000125e175e, type: 3}
  m_Name: 
  m_EditorClassIdentifier: 
  prefabMessageInfo: {fileID: 1157218163988182, guid: ac8729815891d3f48ab4d678a9eb7952,
    type: 2}
  prefabMessageDecision: {fileID: 1537300889417180, guid: 7f83ac41593170d4689bea9410b1f212,
    type: 2}
  prefabMessageMini: {fileID: 1959391339473206, guid: 0c6f8cd7841c1ee40986247b502bbc64,
    type: 2}
  canvas: {fileID: 0}
